%YAML 1.1
%TAG !u! tag:unity3d.com,2011:
--- !u!114 &11400000
MonoBehaviour:
  m_ObjectHideFlags: 0
  m_CorrespondingSourceObject: {fileID: 0}
  m_PrefabInstance: {fileID: 0}
  m_PrefabAsset: {fileID: 0}
  m_GameObject: {fileID: 0}
  m_Enabled: 1
  m_EditorHideFlags: 0
  m_Script: {fileID: 11500000, guid: 6ae4019dc57b5c0408348bfe2d3e409c, type: 3}
  m_Name: MarkerlessLearnDemoSampleProfile
  m_EditorClassIdentifier: 
  nickname: 
  anonymousToken: 29b33ea1-9b7c-4fdc-ad6e-cccddcfb7514
  selectedEndPointName: Appearition USA
  selectedTenant: LittleHizi
  allTenantsAvailable: []
  selectedChannel: 4
