%YAML 1.1
%TAG !u! tag:unity3d.com,2011:
--- !u!1 &638448924432321391
GameObject:
  m_ObjectHideFlags: 0
  m_CorrespondingSourceObject: {fileID: 0}
  m_PrefabInstance: {fileID: 0}
  m_PrefabAsset: {fileID: 0}
  serializedVersion: 6
  m_Component:
  - component: {fileID: 638448924432321390}
  - component: {fileID: 638448924432321392}
  - component: {fileID: 638448924432321393}
  m_Layer: 5
  m_Name: BG_Panel
  m_TagString: Untagged
  m_Icon: {fileID: 0}
  m_NavMeshLayer: 0
  m_StaticEditorFlags: 0
  m_IsActive: 1
--- !u!224 &638448924432321390
RectTransform:
  m_ObjectHideFlags: 0
  m_CorrespondingSourceObject: {fileID: 0}
  m_PrefabInstance: {fileID: 0}
  m_PrefabAsset: {fileID: 0}
  m_GameObject: {fileID: 638448924432321391}
  m_LocalRotation: {x: 0, y: 0, z: 0, w: 1}
  m_LocalPosition: {x: 0, y: 0, z: 0}
  m_LocalScale: {x: 1, y: 1, z: 1}
  m_Children:
  - {fileID: 2698991140714976286}
  - {fileID: 947870443951882456}
  m_Father: {fileID: 638448925056305671}
  m_RootOrder: 0
  m_LocalEulerAnglesHint: {x: 0, y: 0, z: 0}
  m_AnchorMin: {x: 0, y: 0}
  m_AnchorMax: {x: 1, y: 1}
  m_AnchoredPosition: {x: 0, y: 0}
  m_SizeDelta: {x: 0, y: 0}
  m_Pivot: {x: 0.5, y: 0.5}
--- !u!222 &638448924432321392
CanvasRenderer:
  m_ObjectHideFlags: 0
  m_CorrespondingSourceObject: {fileID: 0}
  m_PrefabInstance: {fileID: 0}
  m_PrefabAsset: {fileID: 0}
  m_GameObject: {fileID: 638448924432321391}
  m_CullTransparentMesh: 0
--- !u!114 &638448924432321393
MonoBehaviour:
  m_ObjectHideFlags: 0
  m_CorrespondingSourceObject: {fileID: 0}
  m_PrefabInstance: {fileID: 0}
  m_PrefabAsset: {fileID: 0}
  m_GameObject: {fileID: 638448924432321391}
  m_Enabled: 1
  m_EditorHideFlags: 0
  m_Script: {fileID: 11500000, guid: fe87c0e1cc204ed48ad3b37840f39efc, type: 3}
  m_Name: 
  m_EditorClassIdentifier: 
  m_Material: {fileID: 2100000, guid: a4de9eede19f48a418f9c10cd44666fe, type: 2}
  m_Color: {r: 1, g: 1, b: 1, a: 1}
  m_RaycastTarget: 1
  m_OnCullStateChanged:
    m_PersistentCalls:
      m_Calls: []
  m_Sprite: {fileID: 0}
  m_Type: 0
  m_PreserveAspect: 0
  m_FillCenter: 1
  m_FillMethod: 4
  m_FillAmount: 1
  m_FillClockwise: 1
  m_FillOrigin: 0
  m_UseSpriteMesh: 0
  m_PixelsPerUnitMultiplier: 1
--- !u!1 &638448925056305667
GameObject:
  m_ObjectHideFlags: 0
  m_CorrespondingSourceObject: {fileID: 0}
  m_PrefabInstance: {fileID: 0}
  m_PrefabAsset: {fileID: 0}
  serializedVersion: 6
  m_Component:
  - component: {fileID: 638448925056305671}
  - component: {fileID: 638448925056305668}
  - component: {fileID: 638448925056305669}
  - component: {fileID: 638448925056305666}
  m_Layer: 5
  m_Name: 'MainPanel '
  m_TagString: Untagged
  m_Icon: {fileID: 0}
  m_NavMeshLayer: 0
  m_StaticEditorFlags: 0
  m_IsActive: 1
--- !u!224 &638448925056305671
RectTransform:
  m_ObjectHideFlags: 0
  m_CorrespondingSourceObject: {fileID: 0}
  m_PrefabInstance: {fileID: 0}
  m_PrefabAsset: {fileID: 0}
  m_GameObject: {fileID: 638448925056305667}
  m_LocalRotation: {x: 0, y: 0, z: 0, w: 1}
  m_LocalPosition: {x: 0, y: 0, z: 0}
  m_LocalScale: {x: 0, y: 0, z: 0}
  m_Children:
  - {fileID: 638448924432321390}
  - {fileID: 638448925614101518}
  m_Father: {fileID: 0}
  m_RootOrder: 0
  m_LocalEulerAnglesHint: {x: 0, y: 0, z: 0}
  m_AnchorMin: {x: 0, y: 0}
  m_AnchorMax: {x: 0, y: 0}
  m_AnchoredPosition: {x: 0, y: 0}
  m_SizeDelta: {x: 0, y: 0}
  m_Pivot: {x: 0, y: 0}
--- !u!223 &638448925056305668
Canvas:
  m_ObjectHideFlags: 0
  m_CorrespondingSourceObject: {fileID: 0}
  m_PrefabInstance: {fileID: 0}
  m_PrefabAsset: {fileID: 0}
  m_GameObject: {fileID: 638448925056305667}
  m_Enabled: 1
  serializedVersion: 3
  m_RenderMode: 0
  m_Camera: {fileID: 0}
  m_PlaneDistance: 100
  m_PixelPerfect: 0
  m_ReceivesEvents: 1
  m_OverrideSorting: 0
  m_OverridePixelPerfect: 0
  m_SortingBucketNormalizedSize: 0
  m_AdditionalShaderChannelsFlag: 25
  m_SortingLayerID: 0
  m_SortingOrder: 0
  m_TargetDisplay: 0
--- !u!114 &638448925056305669
MonoBehaviour:
  m_ObjectHideFlags: 0
  m_CorrespondingSourceObject: {fileID: 0}
  m_PrefabInstance: {fileID: 0}
  m_PrefabAsset: {fileID: 0}
  m_GameObject: {fileID: 638448925056305667}
  m_Enabled: 1
  m_EditorHideFlags: 0
  m_Script: {fileID: 11500000, guid: 0cd44c1031e13a943bb63640046fad76, type: 3}
  m_Name: 
  m_EditorClassIdentifier: 
  m_UiScaleMode: 1
  m_ReferencePixelsPerUnit: 100
  m_ScaleFactor: 1
  m_ReferenceResolution: {x: 1080, y: 1920}
  m_ScreenMatchMode: 0
  m_MatchWidthOrHeight: 1
  m_PhysicalUnit: 3
  m_FallbackScreenDPI: 96
  m_DefaultSpriteDPI: 96
  m_DynamicPixelsPerUnit: 1
--- !u!114 &638448925056305666
MonoBehaviour:
  m_ObjectHideFlags: 0
  m_CorrespondingSourceObject: {fileID: 0}
  m_PrefabInstance: {fileID: 0}
  m_PrefabAsset: {fileID: 0}
  m_GameObject: {fileID: 638448925056305667}
  m_Enabled: 1
  m_EditorHideFlags: 0
  m_Script: {fileID: 11500000, guid: dc42784cf147c0c48a680349fa168899, type: 3}
  m_Name: 
  m_EditorClassIdentifier: 
  m_IgnoreReversedGraphics: 1
  m_BlockingObjects: 0
  m_BlockingMask:
    serializedVersion: 2
    m_Bits: 311
--- !u!1 &638448925614101519
GameObject:
  m_ObjectHideFlags: 0
  m_CorrespondingSourceObject: {fileID: 0}
  m_PrefabInstance: {fileID: 0}
  m_PrefabAsset: {fileID: 0}
  serializedVersion: 6
  m_Component:
  - component: {fileID: 638448925614101518}
  - component: {fileID: 638448925614101520}
  - component: {fileID: 638448925614101521}
  m_Layer: 5
  m_Name: BG_Panel_02
  m_TagString: Untagged
  m_Icon: {fileID: 0}
  m_NavMeshLayer: 0
  m_StaticEditorFlags: 0
  m_IsActive: 1
--- !u!224 &638448925614101518
RectTransform:
  m_ObjectHideFlags: 0
  m_CorrespondingSourceObject: {fileID: 0}
  m_PrefabInstance: {fileID: 0}
  m_PrefabAsset: {fileID: 0}
  m_GameObject: {fileID: 638448925614101519}
  m_LocalRotation: {x: 0, y: 0, z: 0, w: 1}
  m_LocalPosition: {x: 0, y: 0, z: 0}
  m_LocalScale: {x: 1, y: 1, z: 1}
  m_Children:
  - {fileID: 9096673108981582829}
  - {fileID: 3316589720483553568}
  m_Father: {fileID: 638448925056305671}
  m_RootOrder: 1
  m_LocalEulerAnglesHint: {x: 0, y: 0, z: 0}
  m_AnchorMin: {x: 0, y: 0}
  m_AnchorMax: {x: 1, y: 0}
  m_AnchoredPosition: {x: 0, y: 0}
  m_SizeDelta: {x: 0, y: 1728}
  m_Pivot: {x: 0.5, y: 0}
--- !u!222 &638448925614101520
CanvasRenderer:
  m_ObjectHideFlags: 0
  m_CorrespondingSourceObject: {fileID: 0}
  m_PrefabInstance: {fileID: 0}
  m_PrefabAsset: {fileID: 0}
  m_GameObject: {fileID: 638448925614101519}
  m_CullTransparentMesh: 0
--- !u!114 &638448925614101521
MonoBehaviour:
  m_ObjectHideFlags: 0
  m_CorrespondingSourceObject: {fileID: 0}
  m_PrefabInstance: {fileID: 0}
  m_PrefabAsset: {fileID: 0}
  m_GameObject: {fileID: 638448925614101519}
  m_Enabled: 1
  m_EditorHideFlags: 0
  m_Script: {fileID: 11500000, guid: fe87c0e1cc204ed48ad3b37840f39efc, type: 3}
  m_Name: 
  m_EditorClassIdentifier: 
  m_Material: {fileID: 2100000, guid: 28dfdd34518f8574881266cc4d1421bf, type: 2}
  m_Color: {r: 1, g: 1, b: 1, a: 1}
  m_RaycastTarget: 1
  m_OnCullStateChanged:
    m_PersistentCalls:
      m_Calls: []
  m_Sprite: {fileID: -5988240668710048512, guid: 85a81c4b4568f974ab522cf44660fcdb,
    type: 3}
  m_Type: 1
  m_PreserveAspect: 0
  m_FillCenter: 1
  m_FillMethod: 4
  m_FillAmount: 1
  m_FillClockwise: 1
  m_FillOrigin: 0
  m_UseSpriteMesh: 0
  m_PixelsPerUnitMultiplier: 1
--- !u!1001 &638448925002943430
PrefabInstance:
  m_ObjectHideFlags: 0
  serializedVersion: 2
  m_Modification:
    m_TransformParent: {fileID: 638448924432321390}
    m_Modifications:
    - target: {fileID: 3290028849382416344, guid: 5f94be299748d424982bd195391d6298,
        type: 3}
      propertyPath: m_LocalPosition.x
      value: 0
      objectReference: {fileID: 0}
    - target: {fileID: 3290028849382416344, guid: 5f94be299748d424982bd195391d6298,
        type: 3}
      propertyPath: m_LocalPosition.y
      value: 0
      objectReference: {fileID: 0}
    - target: {fileID: 3290028849382416344, guid: 5f94be299748d424982bd195391d6298,
        type: 3}
      propertyPath: m_LocalPosition.z
      value: 0
      objectReference: {fileID: 0}
    - target: {fileID: 3290028849382416344, guid: 5f94be299748d424982bd195391d6298,
        type: 3}
      propertyPath: m_LocalRotation.x
      value: 0
      objectReference: {fileID: 0}
    - target: {fileID: 3290028849382416344, guid: 5f94be299748d424982bd195391d6298,
        type: 3}
      propertyPath: m_LocalRotation.y
      value: 0
      objectReference: {fileID: 0}
    - target: {fileID: 3290028849382416344, guid: 5f94be299748d424982bd195391d6298,
        type: 3}
      propertyPath: m_LocalRotation.z
      value: 0
      objectReference: {fileID: 0}
    - target: {fileID: 3290028849382416344, guid: 5f94be299748d424982bd195391d6298,
        type: 3}
      propertyPath: m_LocalRotation.w
      value: 1
      objectReference: {fileID: 0}
    - target: {fileID: 3290028849382416344, guid: 5f94be299748d424982bd195391d6298,
        type: 3}
      propertyPath: m_RootOrder
      value: 0
      objectReference: {fileID: 0}
    - target: {fileID: 3290028849382416344, guid: 5f94be299748d424982bd195391d6298,
        type: 3}
      propertyPath: m_LocalEulerAnglesHint.x
      value: 0
      objectReference: {fileID: 0}
    - target: {fileID: 3290028849382416344, guid: 5f94be299748d424982bd195391d6298,
        type: 3}
      propertyPath: m_LocalEulerAnglesHint.y
      value: 0
      objectReference: {fileID: 0}
    - target: {fileID: 3290028849382416344, guid: 5f94be299748d424982bd195391d6298,
        type: 3}
      propertyPath: m_LocalEulerAnglesHint.z
      value: 0
      objectReference: {fileID: 0}
    - target: {fileID: 3290028849382416344, guid: 5f94be299748d424982bd195391d6298,
        type: 3}
      propertyPath: m_AnchoredPosition.x
      value: 60
      objectReference: {fileID: 0}
    - target: {fileID: 3290028849382416344, guid: 5f94be299748d424982bd195391d6298,
        type: 3}
      propertyPath: m_AnchoredPosition.y
      value: -75
      objectReference: {fileID: 0}
    - target: {fileID: 3290028849382416344, guid: 5f94be299748d424982bd195391d6298,
        type: 3}
      propertyPath: m_SizeDelta.x
      value: 54.31
      objectReference: {fileID: 0}
    - target: {fileID: 3290028849382416344, guid: 5f94be299748d424982bd195391d6298,
        type: 3}
      propertyPath: m_SizeDelta.y
      value: 54.31
      objectReference: {fileID: 0}
    - target: {fileID: 3290028849382416344, guid: 5f94be299748d424982bd195391d6298,
        type: 3}
      propertyPath: m_AnchorMin.x
      value: 0
      objectReference: {fileID: 0}
    - target: {fileID: 3290028849382416344, guid: 5f94be299748d424982bd195391d6298,
        type: 3}
      propertyPath: m_AnchorMin.y
      value: 1
      objectReference: {fileID: 0}
    - target: {fileID: 3290028849382416344, guid: 5f94be299748d424982bd195391d6298,
        type: 3}
      propertyPath: m_AnchorMax.x
      value: 0
      objectReference: {fileID: 0}
    - target: {fileID: 3290028849382416344, guid: 5f94be299748d424982bd195391d6298,
        type: 3}
      propertyPath: m_AnchorMax.y
      value: 1
      objectReference: {fileID: 0}
    - target: {fileID: 3290028849382416344, guid: 5f94be299748d424982bd195391d6298,
        type: 3}
      propertyPath: m_Pivot.x
      value: 0
      objectReference: {fileID: 0}
    - target: {fileID: 3290028849382416344, guid: 5f94be299748d424982bd195391d6298,
        type: 3}
      propertyPath: m_Pivot.y
      value: 1
      objectReference: {fileID: 0}
    - target: {fileID: 3290028849382416345, guid: 5f94be299748d424982bd195391d6298,
        type: 3}
      propertyPath: m_Name
      value: Round_Btn
      objectReference: {fileID: 0}
    m_RemovedComponents: []
  m_SourcePrefab: {fileID: 100100000, guid: 5f94be299748d424982bd195391d6298, type: 3}
--- !u!224 &2698991140714976286 stripped
RectTransform:
  m_CorrespondingSourceObject: {fileID: 3290028849382416344, guid: 5f94be299748d424982bd195391d6298,
    type: 3}
  m_PrefabInstance: {fileID: 638448925002943430}
  m_PrefabAsset: {fileID: 0}
--- !u!1001 &638448925780265747
PrefabInstance:
  m_ObjectHideFlags: 0
  serializedVersion: 2
  m_Modification:
    m_TransformParent: {fileID: 638448925614101518}
    m_Modifications:
    - target: {fileID: 8566380945294147837, guid: 5da54a390b5d4814ca0dcfa2978c27bf,
        type: 3}
      propertyPath: m_Name
      value: Main_Txt
      objectReference: {fileID: 0}
    - target: {fileID: 8566380945294147838, guid: 5da54a390b5d4814ca0dcfa2978c27bf,
        type: 3}
      propertyPath: m_LocalPosition.x
      value: 0
      objectReference: {fileID: 0}
    - target: {fileID: 8566380945294147838, guid: 5da54a390b5d4814ca0dcfa2978c27bf,
        type: 3}
      propertyPath: m_LocalPosition.y
      value: 0
      objectReference: {fileID: 0}
    - target: {fileID: 8566380945294147838, guid: 5da54a390b5d4814ca0dcfa2978c27bf,
        type: 3}
      propertyPath: m_LocalPosition.z
      value: 0
      objectReference: {fileID: 0}
    - target: {fileID: 8566380945294147838, guid: 5da54a390b5d4814ca0dcfa2978c27bf,
        type: 3}
      propertyPath: m_LocalRotation.x
      value: 0
      objectReference: {fileID: 0}
    - target: {fileID: 8566380945294147838, guid: 5da54a390b5d4814ca0dcfa2978c27bf,
        type: 3}
      propertyPath: m_LocalRotation.y
      value: 0
      objectReference: {fileID: 0}
    - target: {fileID: 8566380945294147838, guid: 5da54a390b5d4814ca0dcfa2978c27bf,
        type: 3}
      propertyPath: m_LocalRotation.z
      value: 0
      objectReference: {fileID: 0}
    - target: {fileID: 8566380945294147838, guid: 5da54a390b5d4814ca0dcfa2978c27bf,
        type: 3}
      propertyPath: m_LocalRotation.w
      value: 1
      objectReference: {fileID: 0}
    - target: {fileID: 8566380945294147838, guid: 5da54a390b5d4814ca0dcfa2978c27bf,
        type: 3}
      propertyPath: m_RootOrder
      value: 0
      objectReference: {fileID: 0}
    - target: {fileID: 8566380945294147838, guid: 5da54a390b5d4814ca0dcfa2978c27bf,
        type: 3}
      propertyPath: m_LocalEulerAnglesHint.x
      value: 0
      objectReference: {fileID: 0}
    - target: {fileID: 8566380945294147838, guid: 5da54a390b5d4814ca0dcfa2978c27bf,
        type: 3}
      propertyPath: m_LocalEulerAnglesHint.y
      value: 0
      objectReference: {fileID: 0}
    - target: {fileID: 8566380945294147838, guid: 5da54a390b5d4814ca0dcfa2978c27bf,
        type: 3}
      propertyPath: m_LocalEulerAnglesHint.z
      value: 0
      objectReference: {fileID: 0}
    - target: {fileID: 8566380945294147838, guid: 5da54a390b5d4814ca0dcfa2978c27bf,
        type: 3}
      propertyPath: m_AnchoredPosition.x
      value: 60
      objectReference: {fileID: 0}
    - target: {fileID: 8566380945294147838, guid: 5da54a390b5d4814ca0dcfa2978c27bf,
        type: 3}
      propertyPath: m_AnchoredPosition.y
      value: -100
      objectReference: {fileID: 0}
    - target: {fileID: 8566380945294147838, guid: 5da54a390b5d4814ca0dcfa2978c27bf,
        type: 3}
      propertyPath: m_SizeDelta.x
      value: 434.2
      objectReference: {fileID: 0}
    - target: {fileID: 8566380945294147838, guid: 5da54a390b5d4814ca0dcfa2978c27bf,
        type: 3}
      propertyPath: m_SizeDelta.y
      value: 84.8
      objectReference: {fileID: 0}
    - target: {fileID: 8566380945294147838, guid: 5da54a390b5d4814ca0dcfa2978c27bf,
        type: 3}
      propertyPath: m_AnchorMin.x
      value: 0
      objectReference: {fileID: 0}
    - target: {fileID: 8566380945294147838, guid: 5da54a390b5d4814ca0dcfa2978c27bf,
        type: 3}
      propertyPath: m_AnchorMin.y
      value: 1
      objectReference: {fileID: 0}
    - target: {fileID: 8566380945294147838, guid: 5da54a390b5d4814ca0dcfa2978c27bf,
        type: 3}
      propertyPath: m_AnchorMax.x
      value: 0
      objectReference: {fileID: 0}
    - target: {fileID: 8566380945294147838, guid: 5da54a390b5d4814ca0dcfa2978c27bf,
        type: 3}
      propertyPath: m_AnchorMax.y
      value: 1
      objectReference: {fileID: 0}
    - target: {fileID: 8566380945294147838, guid: 5da54a390b5d4814ca0dcfa2978c27bf,
        type: 3}
      propertyPath: m_Pivot.x
      value: 0
      objectReference: {fileID: 0}
    - target: {fileID: 8566380945294147838, guid: 5da54a390b5d4814ca0dcfa2978c27bf,
        type: 3}
      propertyPath: m_Pivot.y
      value: 1
      objectReference: {fileID: 0}
    - target: {fileID: 8566380945294147839, guid: 5da54a390b5d4814ca0dcfa2978c27bf,
        type: 3}
      propertyPath: m_Text
      value: Heading
      objectReference: {fileID: 0}
    m_RemovedComponents: []
  m_SourcePrefab: {fileID: 100100000, guid: 5da54a390b5d4814ca0dcfa2978c27bf, type: 3}
--- !u!224 &9096673108981582829 stripped
RectTransform:
  m_CorrespondingSourceObject: {fileID: 8566380945294147838, guid: 5da54a390b5d4814ca0dcfa2978c27bf,
    type: 3}
  m_PrefabInstance: {fileID: 638448925780265747}
  m_PrefabAsset: {fileID: 0}
--- !u!1001 &638448926331045166
PrefabInstance:
  m_ObjectHideFlags: 0
  serializedVersion: 2
  m_Modification:
    m_TransformParent: {fileID: 638448924432321390}
    m_Modifications:
    - target: {fileID: 431143591034650836, guid: 6153a642cf9af344eba4cdeef099a2d7,
        type: 3}
      propertyPath: m_Material
      value: 
      objectReference: {fileID: 2100000, guid: 1d731418e58fcba4c9fffd8a49edfa5a, type: 2}
    - target: {fileID: 431143591034650836, guid: 6153a642cf9af344eba4cdeef099a2d7,
        type: 3}
      propertyPath: m_FontData.m_FontSize
      value: 28
      objectReference: {fileID: 0}
    - target: {fileID: 431143591422264820, guid: 6153a642cf9af344eba4cdeef099a2d7,
        type: 3}
      propertyPath: m_Material
      value: 
      objectReference: {fileID: 2100000, guid: a4de9eede19f48a418f9c10cd44666fe, type: 2}
    - target: {fileID: 431143591422264822, guid: 6153a642cf9af344eba4cdeef099a2d7,
        type: 3}
      propertyPath: m_LocalPosition.x
      value: 0
      objectReference: {fileID: 0}
    - target: {fileID: 431143591422264822, guid: 6153a642cf9af344eba4cdeef099a2d7,
        type: 3}
      propertyPath: m_LocalPosition.y
      value: 0
      objectReference: {fileID: 0}
    - target: {fileID: 431143591422264822, guid: 6153a642cf9af344eba4cdeef099a2d7,
        type: 3}
      propertyPath: m_LocalPosition.z
      value: 0
      objectReference: {fileID: 0}
    - target: {fileID: 431143591422264822, guid: 6153a642cf9af344eba4cdeef099a2d7,
        type: 3}
      propertyPath: m_LocalRotation.x
      value: -0
      objectReference: {fileID: 0}
    - target: {fileID: 431143591422264822, guid: 6153a642cf9af344eba4cdeef099a2d7,
        type: 3}
      propertyPath: m_LocalRotation.y
      value: -0
      objectReference: {fileID: 0}
    - target: {fileID: 431143591422264822, guid: 6153a642cf9af344eba4cdeef099a2d7,
        type: 3}
      propertyPath: m_LocalRotation.z
      value: -0
      objectReference: {fileID: 0}
    - target: {fileID: 431143591422264822, guid: 6153a642cf9af344eba4cdeef099a2d7,
        type: 3}
      propertyPath: m_LocalRotation.w
      value: 1
      objectReference: {fileID: 0}
    - target: {fileID: 431143591422264822, guid: 6153a642cf9af344eba4cdeef099a2d7,
        type: 3}
      propertyPath: m_RootOrder
      value: 1
      objectReference: {fileID: 0}
    - target: {fileID: 431143591422264822, guid: 6153a642cf9af344eba4cdeef099a2d7,
        type: 3}
      propertyPath: m_LocalEulerAnglesHint.x
      value: 0
      objectReference: {fileID: 0}
    - target: {fileID: 431143591422264822, guid: 6153a642cf9af344eba4cdeef099a2d7,
        type: 3}
      propertyPath: m_LocalEulerAnglesHint.y
      value: 0
      objectReference: {fileID: 0}
    - target: {fileID: 431143591422264822, guid: 6153a642cf9af344eba4cdeef099a2d7,
        type: 3}
      propertyPath: m_LocalEulerAnglesHint.z
      value: 0
      objectReference: {fileID: 0}
    - target: {fileID: 431143591422264822, guid: 6153a642cf9af344eba4cdeef099a2d7,
        type: 3}
      propertyPath: m_AnchoredPosition.x
      value: -146.6
      objectReference: {fileID: 0}
    - target: {fileID: 431143591422264822, guid: 6153a642cf9af344eba4cdeef099a2d7,
        type: 3}
      propertyPath: m_AnchoredPosition.y
      value: -130
      objectReference: {fileID: 0}
    - target: {fileID: 431143591422264822, guid: 6153a642cf9af344eba4cdeef099a2d7,
        type: 3}
      propertyPath: m_SizeDelta.x
      value: 120
      objectReference: {fileID: 0}
    - target: {fileID: 431143591422264822, guid: 6153a642cf9af344eba4cdeef099a2d7,
        type: 3}
      propertyPath: m_SizeDelta.y
      value: 56.27002
      objectReference: {fileID: 0}
    - target: {fileID: 431143591422264822, guid: 6153a642cf9af344eba4cdeef099a2d7,
        type: 3}
      propertyPath: m_AnchorMin.x
      value: 1
      objectReference: {fileID: 0}
    - target: {fileID: 431143591422264822, guid: 6153a642cf9af344eba4cdeef099a2d7,
        type: 3}
      propertyPath: m_AnchorMin.y
      value: 1
      objectReference: {fileID: 0}
    - target: {fileID: 431143591422264822, guid: 6153a642cf9af344eba4cdeef099a2d7,
        type: 3}
      propertyPath: m_AnchorMax.x
      value: 1
      objectReference: {fileID: 0}
    - target: {fileID: 431143591422264822, guid: 6153a642cf9af344eba4cdeef099a2d7,
        type: 3}
      propertyPath: m_AnchorMax.y
      value: 1
      objectReference: {fileID: 0}
    - target: {fileID: 431143591422264822, guid: 6153a642cf9af344eba4cdeef099a2d7,
        type: 3}
      propertyPath: m_Pivot.x
      value: 0
      objectReference: {fileID: 0}
    - target: {fileID: 431143591422264822, guid: 6153a642cf9af344eba4cdeef099a2d7,
        type: 3}
      propertyPath: m_Pivot.y
      value: 0
      objectReference: {fileID: 0}
    - target: {fileID: 431143591422264823, guid: 6153a642cf9af344eba4cdeef099a2d7,
        type: 3}
      propertyPath: m_Name
      value: Skip_Btn
      objectReference: {fileID: 0}
    m_RemovedComponents: []
  m_SourcePrefab: {fileID: 100100000, guid: 6153a642cf9af344eba4cdeef099a2d7, type: 3}
--- !u!224 &947870443951882456 stripped
RectTransform:
  m_CorrespondingSourceObject: {fileID: 431143591422264822, guid: 6153a642cf9af344eba4cdeef099a2d7,
    type: 3}
  m_PrefabInstance: {fileID: 638448926331045166}
  m_PrefabAsset: {fileID: 0}
--- !u!1001 &7384487354844677962
PrefabInstance:
  m_ObjectHideFlags: 0
  serializedVersion: 2
  m_Modification:
    m_TransformParent: {fileID: 638448925614101518}
    m_Modifications:
    - target: {fileID: 5223081385014847082, guid: af703358c87091c4682e9703e693ee70,
        type: 3}
      propertyPath: m_LocalPosition.x
      value: 0
      objectReference: {fileID: 0}
    - target: {fileID: 5223081385014847082, guid: af703358c87091c4682e9703e693ee70,
        type: 3}
      propertyPath: m_LocalPosition.y
      value: 0
      objectReference: {fileID: 0}
    - target: {fileID: 5223081385014847082, guid: af703358c87091c4682e9703e693ee70,
        type: 3}
      propertyPath: m_LocalPosition.z
      value: 0
      objectReference: {fileID: 0}
    - target: {fileID: 5223081385014847082, guid: af703358c87091c4682e9703e693ee70,
        type: 3}
      propertyPath: m_LocalRotation.x
      value: 0
      objectReference: {fileID: 0}
    - target: {fileID: 5223081385014847082, guid: af703358c87091c4682e9703e693ee70,
        type: 3}
      propertyPath: m_LocalRotation.y
      value: 0
      objectReference: {fileID: 0}
    - target: {fileID: 5223081385014847082, guid: af703358c87091c4682e9703e693ee70,
        type: 3}
      propertyPath: m_LocalRotation.z
      value: 0
      objectReference: {fileID: 0}
    - target: {fileID: 5223081385014847082, guid: af703358c87091c4682e9703e693ee70,
        type: 3}
      propertyPath: m_LocalRotation.w
      value: 1
      objectReference: {fileID: 0}
    - target: {fileID: 5223081385014847082, guid: af703358c87091c4682e9703e693ee70,
        type: 3}
      propertyPath: m_RootOrder
      value: 1
      objectReference: {fileID: 0}
    - target: {fileID: 5223081385014847082, guid: af703358c87091c4682e9703e693ee70,
        type: 3}
      propertyPath: m_LocalEulerAnglesHint.x
      value: 0
      objectReference: {fileID: 0}
    - target: {fileID: 5223081385014847082, guid: af703358c87091c4682e9703e693ee70,
        type: 3}
      propertyPath: m_LocalEulerAnglesHint.y
      value: 0
      objectReference: {fileID: 0}
    - target: {fileID: 5223081385014847082, guid: af703358c87091c4682e9703e693ee70,
        type: 3}
      propertyPath: m_LocalEulerAnglesHint.z
      value: 0
      objectReference: {fileID: 0}
    - target: {fileID: 5223081385014847082, guid: af703358c87091c4682e9703e693ee70,
        type: 3}
      propertyPath: m_AnchoredPosition.x
      value: 0
      objectReference: {fileID: 0}
    - target: {fileID: 5223081385014847082, guid: af703358c87091c4682e9703e693ee70,
        type: 3}
      propertyPath: m_AnchoredPosition.y
      value: 128
      objectReference: {fileID: 0}
    - target: {fileID: 5223081385014847082, guid: af703358c87091c4682e9703e693ee70,
        type: 3}
      propertyPath: m_SizeDelta.x
      value: 1080
      objectReference: {fileID: 0}
    - target: {fileID: 5223081385014847082, guid: af703358c87091c4682e9703e693ee70,
        type: 3}
      propertyPath: m_SizeDelta.y
      value: 165
      objectReference: {fileID: 0}
    - target: {fileID: 5223081385014847082, guid: af703358c87091c4682e9703e693ee70,
        type: 3}
      propertyPath: m_AnchorMin.x
      value: 0.5
      objectReference: {fileID: 0}
    - target: {fileID: 5223081385014847082, guid: af703358c87091c4682e9703e693ee70,
        type: 3}
      propertyPath: m_AnchorMin.y
      value: 0
      objectReference: {fileID: 0}
    - target: {fileID: 5223081385014847082, guid: af703358c87091c4682e9703e693ee70,
        type: 3}
      propertyPath: m_AnchorMax.x
      value: 0.5
      objectReference: {fileID: 0}
    - target: {fileID: 5223081385014847082, guid: af703358c87091c4682e9703e693ee70,
        type: 3}
      propertyPath: m_AnchorMax.y
      value: 0
      objectReference: {fileID: 0}
    - target: {fileID: 5223081385014847082, guid: af703358c87091c4682e9703e693ee70,
        type: 3}
      propertyPath: m_Pivot.x
      value: 0.5
      objectReference: {fileID: 0}
    - target: {fileID: 5223081385014847082, guid: af703358c87091c4682e9703e693ee70,
        type: 3}
      propertyPath: m_Pivot.y
      value: 0
      objectReference: {fileID: 0}
    - target: {fileID: 5223081385014847083, guid: af703358c87091c4682e9703e693ee70,
        type: 3}
      propertyPath: m_Name
      value: Primary_Btn
      objectReference: {fileID: 0}
    - target: {fileID: 5223081385233780458, guid: af703358c87091c4682e9703e693ee70,
        type: 3}
      propertyPath: m_Text
      value: Button Text
      objectReference: {fileID: 0}
    - target: {fileID: 5223081385233780459, guid: af703358c87091c4682e9703e693ee70,
        type: 3}
      propertyPath: m_AnchoredPosition.y
      value: 19.9
      objectReference: {fileID: 0}
    - target: {fileID: 5223081385233780459, guid: af703358c87091c4682e9703e693ee70,
        type: 3}
      propertyPath: m_SizeDelta.y
      value: -57.9
      objectReference: {fileID: 0}
    m_RemovedComponents: []
  m_SourcePrefab: {fileID: 100100000, guid: af703358c87091c4682e9703e693ee70, type: 3}
--- !u!224 &3316589720483553568 stripped
RectTransform:
  m_CorrespondingSourceObject: {fileID: 5223081385014847082, guid: af703358c87091c4682e9703e693ee70,
    type: 3}
  m_PrefabInstance: {fileID: 7384487354844677962}
  m_PrefabAsset: {fileID: 0}
